<svg width="48" height="46" viewBox="0 0 48 46" fill="none" xmlns="http://www.w3.org/2000/svg">
<path d="M0 17L18.5 17.5L24 0L29.5 17.5L48 17L33 28.5L38.5 46L24 35L9.5 46L15 28.5L0 17Z" fill="#FFF500"/>
</svg>


